5 5 0.0512861
0.0012945 0.00024398 0.000283205 0.000163138 6.21674e-05 -3.73634e-06 8.77113e-08
8.946e-05 0.000260106 0.000301692 0.000174403 6.60281e-05 -3.94935e-06 9.21767e-08
5.655e-05 0.000260134 0.000301724 0.000174412 6.6046e-05 -3.94989e-06 9.21961e-08
5.624e-05 0.000260188 0.000301791 0.000174437 6.6067e-05 -3.94951e-06 9.21908e-08
6.89e-06 0.000261001 0.000302717 0.000175022 6.62471e-05 -3.95814e-06 9.23418e-08
